module sachahjkl/htmx_go

go 1.21.3

require github.com/gofiber/fiber/v2 v2.50.0

require (
	github.com/MicahParks/keyfunc/v2 v2.1.0 // indirect
	github.com/fsnotify/fsnotify v1.6.0 // indirect
	github.com/gofiber/template v1.8.2 // indirect
	github.com/gofiber/utils v1.1.0 // indirect
	github.com/golang-jwt/jwt/v5 v5.0.0 // indirect
	github.com/hashicorp/hcl v1.0.0 // indirect
	github.com/jinzhu/inflection v1.0.0 // indirect
	github.com/jinzhu/now v1.1.5 // indirect
	github.com/magiconair/properties v1.8.7 // indirect
	github.com/mattn/go-sqlite3 v1.14.17 // indirect
	github.com/mitchellh/mapstructure v1.5.0 // indirect
	github.com/pelletier/go-toml/v2 v2.1.0 // indirect
	github.com/sagikazarmark/locafero v0.3.0 // indirect
	github.com/sagikazarmark/slog-shim v0.1.0 // indirect
	github.com/sourcegraph/conc v0.3.0 // indirect
	github.com/spf13/afero v1.10.0 // indirect
	github.com/spf13/cast v1.5.1 // indirect
	github.com/spf13/pflag v1.0.5 // indirect
	github.com/subosito/gotenv v1.6.0 // indirect
	go.uber.org/atomic v1.9.0 // indirect
	go.uber.org/multierr v1.9.0 // indirect
	golang.org/x/exp v0.0.0-20230905200255-921286631fa9 // indirect
	golang.org/x/text v0.14.0 // indirect
	gopkg.in/ini.v1 v1.67.0 // indirect
	gopkg.in/yaml.v3 v3.0.1 // indirect
)

require (
	github.com/andybalholm/brotli v1.0.5 // indirect
	github.com/gofiber/contrib/jwt v1.0.7
	github.com/gofiber/template/html/v2 v2.0.5
	github.com/google/uuid v1.3.1 // indirect
	github.com/joho/godotenv v1.5.1
	github.com/klauspost/compress v1.17.0 // indirect
	github.com/mattn/go-colorable v0.1.13 // indirect
	github.com/mattn/go-isatty v0.0.19 // indirect
	github.com/mattn/go-runewidth v0.0.15 // indirect
	github.com/rivo/uniseg v0.2.0 // indirect
	github.com/spf13/viper v1.17.0
	github.com/valyala/bytebufferpool v1.0.0 // indirect
	github.com/valyala/fasthttp v1.50.0 // indirect
	github.com/valyala/tcplisten v1.0.0 // indirect
	github.com/wagslane/go-password-validator v0.3.0
	golang.org/x/crypto v0.15.0
	golang.org/x/sys v0.14.0 // indirect
	gorm.io/driver/sqlite v1.5.4
	gorm.io/gorm v1.25.5
)
